…
Alternatively, we could have used:

``` r
expand_grid(
    means = 0,
    iter = 1:5000
  ) %>% 
  mutate(
    estimate_df = map(means, sim_power)
  ) %>% 
  unnest(estimate_df)
```

    ## # A tibble: 5,000 × 4
    ##    means  iter estimate p.value
    ##    <dbl> <int>    <dbl>   <dbl>
    ##  1     0     1    0.520   0.549
    ##  2     0     2    1.11    0.188
    ##  3     0     3    1.01    0.220
    ##  4     0     4   -0.835   0.309
    ##  5     0     5   -0.892   0.365
    ##  6     0     6    0.557   0.503
    ##  7     0     7    1.04    0.238
    ##  8     0     8    1.40    0.144
    ##  9     0     9    1.15    0.180
    ## 10     0    10   -0.500   0.634
    ## # … with 4,990 more rows
…
